<?xml version="1.0" encoding="UTF-8" standalone="no"?>
<!-- Created with Inkscape (http://www.inkscape.org/) -->

<svg
   xmlns:dc="http://purl.org/dc/elements/1.1/"
   xmlns:cc="http://creativecommons.org/ns#"
   xmlns:rdf="http://www.w3.org/1999/02/22-rdf-syntax-ns#"
   xmlns:svg="http://www.w3.org/2000/svg"
   xmlns="http://www.w3.org/2000/svg"
   xmlns:sodipodi="http://sodipodi.sourceforge.net/DTD/sodipodi-0.dtd"
   xmlns:inkscape="http://www.inkscape.org/namespaces/inkscape"
   width="468.16699mm"
   height="100.55721mm"
   viewBox="0 0 468.16697 100.55719"
   version="1.1"
   id="svg987"
   sodipodi:docname="comps-side.svg"
   inkscape:version="0.92.5 (2060ec1f9f, 2020-04-08)">
  <defs
     id="defs981">
    <marker
       inkscape:stockid="Arrow2Lstart"
       orient="auto"
       refY="0"
       refX="0"
       id="marker2356"
       style="overflow:visible"
       inkscape:isstock="true">
      <path
         id="path2354"
         style="fill:#000000;fill-opacity:1;fill-rule:evenodd;stroke:#000000;stroke-width:0.625;stroke-linejoin:round;stroke-opacity:1"
         d="M 8.7185878,4.0337352 -2.2072895,0.01601326 8.7185884,-4.0017078 c -1.7454984,2.3720609 -1.7354408,5.6174519 -6e-7,8.035443 z"
         transform="matrix(1.1,0,0,1.1,1.1,0)"
         inkscape:connector-curvature="0" />
    </marker>
    <marker
       inkscape:stockid="Arrow2Mend"
       orient="auto"
       refY="0"
       refX="0"
       id="Arrow2Mend"
       style="overflow:visible"
       inkscape:isstock="true">
      <path
         id="path1953"
         style="fill:#000000;fill-opacity:1;fill-rule:evenodd;stroke:#000000;stroke-width:0.625;stroke-linejoin:round;stroke-opacity:1"
         d="M 8.7185878,4.0337352 -2.2072895,0.01601326 8.7185884,-4.0017078 c -1.7454984,2.3720609 -1.7354408,5.6174519 -6e-7,8.035443 z"
         transform="scale(-0.6)"
         inkscape:connector-curvature="0" />
    </marker>
    <marker
       inkscape:stockid="Arrow2Lstart"
       orient="auto"
       refY="0"
       refX="0"
       id="Arrow2Lstart"
       style="overflow:visible"
       inkscape:isstock="true">
      <path
         id="path1944"
         style="fill:#000000;fill-opacity:1;fill-rule:evenodd;stroke:#000000;stroke-width:0.625;stroke-linejoin:round;stroke-opacity:1"
         d="M 8.7185878,4.0337352 -2.2072895,0.01601326 8.7185884,-4.0017078 c -1.7454984,2.3720609 -1.7354408,5.6174519 -6e-7,8.035443 z"
         transform="matrix(1.1,0,0,1.1,1.1,0)"
         inkscape:connector-curvature="0" />
    </marker>
    <marker
       inkscape:stockid="Arrow2Lend"
       orient="auto"
       refY="0"
       refX="0"
       id="marker1852"
       style="overflow:visible"
       inkscape:isstock="true">
      <path
         id="path1850"
         style="fill:#000000;fill-opacity:1;fill-rule:evenodd;stroke:#000000;stroke-width:0.625;stroke-linejoin:round;stroke-opacity:1"
         d="M 8.7185878,4.0337352 -2.2072895,0.01601326 8.7185884,-4.0017078 c -1.7454984,2.3720609 -1.7354408,5.6174519 -6e-7,8.035443 z"
         transform="matrix(-1.1,0,0,-1.1,-1.1,0)"
         inkscape:connector-curvature="0" />
    </marker>
    <marker
       inkscape:stockid="Arrow1Lend"
       orient="auto"
       refY="0"
       refX="0"
       id="Arrow1Lend"
       style="overflow:visible"
       inkscape:isstock="true">
      <path
         id="path913"
         d="M 0,0 5,-5 -12.5,0 5,5 Z"
         style="fill:#000000;fill-opacity:1;fill-rule:evenodd;stroke:#000000;stroke-width:1.00000003pt;stroke-opacity:1"
         transform="matrix(-0.8,0,0,-0.8,-10,0)"
         inkscape:connector-curvature="0" />
    </marker>
    <marker
       inkscape:stockid="Arrow1Lstart"
       orient="auto"
       refY="0"
       refX="0"
       id="marker2581"
       style="overflow:visible"
       inkscape:isstock="true">
      <path
         id="path2579"
         d="M 0,0 5,-5 -12.5,0 5,5 Z"
         style="fill:#000000;fill-opacity:1;fill-rule:evenodd;stroke:#000000;stroke-width:1.00000003pt;stroke-opacity:1"
         transform="matrix(0.8,0,0,0.8,10,0)"
         inkscape:connector-curvature="0" />
    </marker>
    <marker
       inkscape:stockid="Arrow1Lstart"
       orient="auto"
       refY="0"
       refX="0"
       id="marker2547"
       style="overflow:visible"
       inkscape:isstock="true">
      <path
         id="path2545"
         d="M 0,0 5,-5 -12.5,0 5,5 Z"
         style="fill:#000000;fill-opacity:1;fill-rule:evenodd;stroke:#000000;stroke-width:1.00000003pt;stroke-opacity:1"
         transform="matrix(0.8,0,0,0.8,10,0)"
         inkscape:connector-curvature="0" />
    </marker>
    <marker
       inkscape:stockid="Arrow1Lstart"
       orient="auto"
       refY="0"
       refX="0"
       id="marker2501"
       style="overflow:visible"
       inkscape:isstock="true">
      <path
         id="path2499"
         d="M 0,0 5,-5 -12.5,0 5,5 Z"
         style="fill:#000000;fill-opacity:1;fill-rule:evenodd;stroke:#000000;stroke-width:1.00000003pt;stroke-opacity:1"
         transform="matrix(0.8,0,0,0.8,10,0)"
         inkscape:connector-curvature="0" />
    </marker>
    <marker
       inkscape:stockid="Arrow1Lstart"
       orient="auto"
       refY="0"
       refX="0"
       id="marker2467"
       style="overflow:visible"
       inkscape:isstock="true">
      <path
         id="path2465"
         d="M 0,0 5,-5 -12.5,0 5,5 Z"
         style="fill:#000000;fill-opacity:1;fill-rule:evenodd;stroke:#000000;stroke-width:1.00000003pt;stroke-opacity:1"
         transform="matrix(0.8,0,0,0.8,10,0)"
         inkscape:connector-curvature="0" />
    </marker>
    <marker
       inkscape:stockid="Arrow2Lstart"
       orient="auto"
       refY="0"
       refX="0"
       id="marker2356-7"
       style="overflow:visible"
       inkscape:isstock="true">
      <path
         inkscape:connector-curvature="0"
         id="path2354-0"
         style="fill:#000000;fill-opacity:1;fill-rule:evenodd;stroke:#000000;stroke-width:0.625;stroke-linejoin:round;stroke-opacity:1"
         d="M 8.7185878,4.0337352 -2.2072895,0.01601326 8.7185884,-4.0017078 c -1.7454984,2.3720609 -1.7354408,5.6174519 -6e-7,8.035443 z"
         transform="matrix(1.1,0,0,1.1,1.1,0)" />
    </marker>
    <clipPath
       clipPathUnits="userSpaceOnUse"
       id="clipPath1888">
      <circle
         style="opacity:1;vector-effect:none;fill:none;fill-opacity:1;stroke:#dfdfdf;stroke-width:0.34368151;stroke-linecap:round;stroke-linejoin:round;stroke-miterlimit:4;stroke-dasharray:1.03104459, 1.03104459;stroke-dashoffset:0;stroke-opacity:1;paint-order:fill markers stroke"
         id="circle1890"
         cx="95.587013"
         cy="-92.81974"
         r="22.933279" />
    </clipPath>
    <clipPath
       clipPathUnits="userSpaceOnUse"
       id="clipPath1888-3">
      <circle
         style="opacity:1;vector-effect:none;fill:none;fill-opacity:1;stroke:#dfdfdf;stroke-width:0.34368151;stroke-linecap:round;stroke-linejoin:round;stroke-miterlimit:4;stroke-dasharray:1.03104459, 1.03104459;stroke-dashoffset:0;stroke-opacity:1;paint-order:fill markers stroke"
         id="circle1890-6"
         cx="95.587013"
         cy="-92.81974"
         r="22.933279" />
    </clipPath>
  </defs>
  <sodipodi:namedview
     id="base"
     pagecolor="#ffffff"
     bordercolor="#666666"
     borderopacity="1.0"
     inkscape:pageopacity="0.0"
     inkscape:pageshadow="2"
     inkscape:zoom="0.35355339"
     inkscape:cx="905.30779"
     inkscape:cy="491.28638"
     inkscape:document-units="mm"
     inkscape:current-layer="layer1"
     showgrid="false"
     inkscape:snap-bbox="true"
     inkscape:bbox-nodes="true"
     inkscape:object-paths="false"
     inkscape:snap-intersection-paths="true"
     inkscape:snap-smooth-nodes="true"
     fit-margin-top="0"
     fit-margin-left="0"
     fit-margin-right="0"
     fit-margin-bottom="0"
     inkscape:window-width="1920"
     inkscape:window-height="1057"
     inkscape:window-x="1920"
     inkscape:window-y="23"
     inkscape:window-maximized="1"
     inkscape:snap-global="true"
     inkscape:snap-object-midpoints="true"
     inkscape:snap-bbox-midpoints="true"
     inkscape:object-nodes="true"
     inkscape:snap-nodes="true"
     inkscape:lockguides="true"
     showguides="false" />
  <metadata
     id="metadata984">
    <rdf:RDF>
      <cc:Work
         rdf:about="">
        <dc:format>image/svg+xml</dc:format>
        <dc:type
           rdf:resource="http://purl.org/dc/dcmitype/StillImage" />
        <dc:title></dc:title>
      </cc:Work>
    </rdf:RDF>
  </metadata>
  <g
     inkscape:label="Layer 1"
     inkscape:groupmode="layer"
     id="layer1"
     transform="translate(-14.931993,92.516175)">
    <path
       style="fill:none;stroke:#000000;stroke-width:0.69999999;stroke-linecap:butt;stroke-linejoin:miter;stroke-miterlimit:4;stroke-dasharray:none;stroke-opacity:1"
       d="m 61.778228,-71.62426 c -45.50281,4.363283 -42.79274,44.223302 -34.37784,59.183126 8.4149,14.9598189 32.68699,7.5805589 40.45913,-1.124349 8.04163,-9.006743 21.75193,-32.810035 4.27223,-39.797277 -17.53223,-7.008243 -30.86145,25.306309 -15.52608,27.488405 19.72722,2.10116 5.20014,-41.779456 -14.89844,-24.808239 -15.78926,14.044247 1.96443,50.83208889 26.42997,47.2479759 10.55695,-1.546558 20.49116,-8.6426059 24.37941,-18.4018959 5.40902,-13.576342 1.29148,-45.213039 20.749612,-39.325651 18.14917,5.454615 6.46093,34.437742 -5.06206,32.241263 C 96.098788,-31.228391 94.495498,-74.613849 61.778228,-71.62426 Z"
       id="path1047-3"
       inkscape:connector-curvature="0"
       sodipodi:nodetypes="csssccsscsc" />
    <g
       id="g1282"
       transform="translate(-0.33344999,-95.041044)">
      <path
         sodipodi:nodetypes="ccccc"
         inkscape:connector-curvature="0"
         id="path1110"
         d="m 170.11725,43.555925 c 2.15152,1.449937 4.42368,3.955415 4.42368,3.955415 0,0 2.4935,-1.985045 4.92565,-3.154349 0,0 -2.6468,-3.169191 -4.19028,-4.151407 -2.38538,0.935443 -5.15905,3.350341 -5.15905,3.350341 z"
         style="fill:#c5c5c5;fill-opacity:1;stroke:none;stroke-width:0.26458332px;stroke-linecap:butt;stroke-linejoin:miter;stroke-opacity:1" />
      <path
         sodipodi:nodetypes="ccccc"
         inkscape:connector-curvature="0"
         id="path1112"
         d="m 208.76891,49.423077 4.86776,8.880361 1.70791,-8.5281 -4.14922,-8.588468 c -1.59025,4.349812 -2.42645,8.236207 -2.42645,8.236207"
         style="fill:#c5c5c5;fill-opacity:1;stroke:none;stroke-width:0.26458332px;stroke-linecap:butt;stroke-linejoin:miter;stroke-opacity:1" />
      <path
         sodipodi:nodetypes="ccccc"
         inkscape:connector-curvature="0"
         id="path1108"
         d="m 162.13462,88.070197 c 3.87748,2.834966 8.92554,5.085342 8.92554,5.085342 4.63044,-1.917659 8.33922,-4.036224 8.33922,-4.036224 -5.75298,-0.748355 -7.63804,-1.666493 -10.11696,-2.929342 -3.46114,1.122532 -7.1478,1.880224 -7.1478,1.880224"
         style="fill:#c5c5c5;fill-opacity:1;stroke:none;stroke-width:0.26458332px;stroke-linecap:butt;stroke-linejoin:miter;stroke-opacity:1" />
      <path
         sodipodi:nodetypes="csssssscsscssssssssssssssssssssccsscsssscscssssssssc"
         inkscape:connector-curvature="0"
         id="path1076"
         d="m 185.16979,20.443446 c -12.03854,-1.322916 -32.17152,1.245423 -41.2335,13.482402 -9.06198,12.236979 -11.32964,24.184316 -8.42976,36.906345 2.89987,12.722029 5.89329,23.479627 23.19899,24.134436 17.3057,0.65481 30.96318,-11.973673 34.98558,-22.544182 4.02241,-10.570512 11.78659,-26.660136 -1.40316,-31.711529 -13.18975,-5.051395 -21.23457,0.654809 -24.97634,6.080381 -3.74177,5.42557 -6.64165,18.521778 -2.24506,22.26355 4.39658,3.741774 16.93152,4.770763 18.9895,-4.490127 2.05797,-9.260888 -3.55469,-26.473047 -15.62191,-26.473047 -12.06722,0 -18.04935,8.617429 -18.79771,12.546291 -0.74835,3.928861 -2.58049,15.055936 2.93862,24.597456 5.51912,9.541524 11.55605,18.608676 26.4296,19.263488 14.87355,0.654809 30.86963,-9.728613 32.74052,-23.292541 1.87089,-13.563928 4.67722,-36.575834 12.72203,-35.079125 8.04481,1.49671 13.65747,9.354434 8.51253,21.234564 -5.14494,11.88013 -12.72203,3.741775 -21.04747,-14.592916 -8.32545,-18.334689 -16.18317,-19.831399 -19.8314,-20.860386 -3.64823,-1.028988 -4.39658,1.590253 -7.85772,1.122532 -3.46114,-0.467722 -26.66014,0.09354 -35.92103,11.693041 -9.26089,11.599498 -12.62848,24.882793 -9.35443,37.137102 3.27405,12.254307 11.5995,26.566588 32.36634,17.025067 20.76684,-9.541521 26.09887,-31.33735 24.60216,-38.727353 -1.49671,-7.390003 -11.50596,-11.880131 -19.73786,-7.76418 -8.2319,4.115951 -17.49279,24.41507 -4.67721,26.379501 12.81557,1.964431 13.47038,-15.996081 4.77076,-23.666714 -8.69963,-7.670637 -19.64431,-5.799749 -23.85381,6.641647 -4.20949,12.441396 4.02241,29.372919 13.18975,35.079125 9.16735,5.706202 22.26355,9.073795 34.05014,-2.245064 11.78659,-11.318864 10.7576,-23.573173 11.88013,-30.86963 1.12253,-7.29646 5.33203,-27.502035 18.89596,-19.176589 13.56393,8.325444 5.05139,25.537603 1.49671,28.905199 -3.55469,3.367595 -10.19634,1.309621 -13.56393,-4.022408 -3.3676,-5.332026 -9.44798,-19.083043 -13.75102,-24.227981 -4.30304,-5.144938 -8.13836,-8.886712 -13.09621,-10.196332 -4.95784,-1.309621 -4.11595,1.30962 -7.95126,1.216076 -3.83532,-0.09354 -18.52178,-0.187089 -27.59558,6.454559 -9.0738,6.641649 -15.62191,19.831398 -14.59292,31.992161 1.02899,12.160766 7.76418,23.386084 15.15418,23.666717 7.39001,0.280633 21.14102,-1.496708 31.05672,-20.018486 9.9157,-18.521778 2.53092,-25.005675 -2.98872,-25.060481 -9.42172,-0.09354 -18.78606,12.244807 -16.89472,18.865805 2.61145,9.141867 12.49344,1.33037 12.11926,-3.066214 -0.37417,-4.396584 -6.73519,-17.960512 -14.49937,-16.276714 -7.76418,1.683798 -18.1476,15.434815 -4.77076,34.892038 13.37684,19.457219 32.36634,9.915699 39.47571,2.151517 7.10937,-7.764179 7.76418,-23.292538 8.60608,-29.653552 0.8419,-6.361015 6.64165,-25.163426 20.57975,-19.737855 13.93811,5.425571 16.18317,19.737855 8.51253,31.056719 -7.67063,11.318864 -18.9895,8.512535 -27.87621,-9.822156 -8.88671,-18.334689 -15.90253,-23.479627 -18.80241,-24.227982 -2.89987,-0.748354 -2.82389,-6.297714 -5.90207,-6.984175 z"
         style="fill:none;stroke:#000000;stroke-width:0.69999999;stroke-linecap:butt;stroke-linejoin:miter;stroke-miterlimit:4;stroke-dasharray:none;stroke-opacity:1" />
    </g>
    <g
       id="g1265"
       transform="translate(229.98173,-198.52591)">
      <path
         sodipodi:nodetypes="cscsscsscsscccscccccccccccc"
         inkscape:connector-curvature="0"
         id="path1114"
         d="m 136.51817,128.98197 c 10.49414,-12.24994 20.25258,-13.44379 26.80067,-15.68885 6.5481,-2.24507 -4.11596,9.91569 -4.11596,9.91569 0,0 33.30181,-11.59949 37.79192,-12.16076 4.49014,-0.56126 35.17268,-9.72861 22.45064,-1.87089 -12.72202,7.85773 -14.21874,11.97368 -14.21874,11.97368 0,0 36.10811,-7.85772 41.53368,-8.2319 5.42558,-0.37418 28.81167,-3.3676 20.76686,1.12253 -8.04482,4.49013 -1.87962,11.77329 -1.87962,11.77329 0,0 6.93102,-6.34772 8.42771,-6.34772 1.49672,0 3.1805,20.20558 -5.42557,28.0633 -8.60608,7.85773 -4.66715,12.35887 -4.66715,12.35887 0,0 4.85424,-5.06241 7.09931,-2.25608 2.24506,2.80633 -2.25286,34.29659 -9.36224,41.03179 -5.75229,5.44956 -75.46138,4.21679 -93.02385,7.90202 0,0 5.76634,-2.89896 6.59174,-3.86653 0,0 -19.86789,3.83029 -47.4851,-1.14912 1.28855,-0.87837 1.45455,0.30124 8.94977,-6.50043 0.57126,-0.51839 -6.49101,-0.44616 -14.03164,2.99342 0,0 8.04642,-12.28527 13.47038,-16.65089 0,0 -8.35088,2.91593 -14.70089,5.95863 0,0 10.54117,-18.72928 16.75888,-28.78345 -1.71979,1.71979 -1.88191,0.51749 -8.23191,6.7352 1.85208,-8.99584 12.34784,-27.87622 12.34784,-27.87622 0,0 -1.47561,-0.59175 -7.29644,4.30304 2.91042,-6.21771 6.87328,-9.99113 12.72202,-14.78 -3.57188,1.32292 -2.14419,-0.61445 -11.27231,2.03138 z"
         style="fill:#c5c5c5;fill-opacity:1;stroke:none;stroke-width:0.26458332px;stroke-linecap:butt;stroke-linejoin:miter;stroke-opacity:1" />
      <path
         sodipodi:nodetypes="csssssscsscssssssssssssssssssssccsscsssscscssssssssc"
         inkscape:connector-curvature="0"
         id="path1076-6-7"
         d="m 192.72578,123.63339 c -12.03854,-1.32291 -32.17152,1.24543 -41.2335,13.4824 -9.06198,12.23698 -11.32964,24.18432 -8.42976,36.90635 2.89987,12.72203 5.89329,23.47963 23.19899,24.13444 17.3057,0.65481 30.96318,-11.97368 34.98558,-22.54419 4.02241,-10.57051 11.78659,-26.66013 -1.40316,-31.71153 -13.18975,-5.05139 -21.23457,0.65481 -24.97634,6.08039 -3.74177,5.42557 -6.64165,18.52177 -2.24506,22.26355 4.39658,3.74177 16.93152,4.77076 18.9895,-4.49013 2.05797,-9.26089 -3.55469,-26.47305 -15.62191,-26.47305 -12.06722,0 -18.04935,8.61743 -18.79771,12.54629 -0.74835,3.92886 -2.58049,15.05594 2.93862,24.59746 5.51912,9.54152 11.55605,18.60868 26.4296,19.26349 14.87355,0.65481 30.86963,-9.72862 32.74052,-23.29254 1.87089,-13.56393 4.67722,-36.57584 12.72203,-35.07913 8.04481,1.49671 13.65747,9.35443 8.51253,21.23457 -5.14494,11.88013 -12.72203,3.74177 -21.04747,-14.59292 -8.32545,-18.33469 -16.18317,-19.8314 -19.8314,-20.86039 -3.64823,-1.02899 -4.39658,1.59026 -7.85772,1.12253 -3.46114,-0.46772 -26.66014,0.0935 -35.92103,11.69305 -9.26089,11.59949 -12.62848,24.88279 -9.35443,37.1371 3.27405,12.25431 11.5995,26.56659 32.36634,17.02507 20.76684,-9.54152 26.09887,-31.33735 24.60216,-38.72736 -1.49671,-7.39 -11.50596,-11.88013 -19.73786,-7.76418 -8.2319,4.11595 -17.49279,24.41507 -4.67721,26.3795 12.81557,1.96443 13.47038,-15.99608 4.77076,-23.66671 -8.69963,-7.67064 -19.64431,-5.79975 -23.85381,6.64165 -4.20949,12.44139 4.02241,29.37292 13.18975,35.07912 9.16735,5.7062 22.26355,9.0738 34.05014,-2.24506 11.78659,-11.31887 10.7576,-23.57318 11.88013,-30.86963 1.12253,-7.29646 5.33203,-27.50204 18.89596,-19.17659 13.56393,8.32544 5.05139,25.5376 1.49671,28.9052 -3.55469,3.36759 -10.19634,1.30962 -13.56393,-4.02241 -3.3676,-5.33203 -9.44798,-19.08304 -13.75102,-24.22798 -4.30304,-5.14494 -8.13836,-8.88671 -13.09621,-10.19633 -4.95784,-1.30963 -4.11595,1.30962 -7.95126,1.21607 -3.83532,-0.0935 -18.52178,-0.18709 -27.59558,6.45456 -9.0738,6.64165 -15.62191,19.8314 -14.59292,31.99216 1.02899,12.16077 7.76418,23.38609 15.15418,23.66672 7.39001,0.28063 21.14102,-1.49671 31.05672,-20.01849 9.9157,-18.52177 2.53092,-25.00567 -2.98872,-25.06048 -9.42172,-0.0935 -18.78606,12.24481 -16.89472,18.86581 2.61145,9.14186 12.49344,1.33037 12.11926,-3.06622 -0.37417,-4.39658 -6.73519,-17.96051 -14.49937,-16.27671 -7.76418,1.6838 -18.1476,15.43481 -4.77076,34.89204 13.37684,19.45722 32.36634,9.9157 39.47571,2.15152 7.10937,-7.76418 7.76418,-23.29254 8.60608,-29.65356 0.8419,-6.36101 6.64165,-25.16342 20.57975,-19.73785 13.93811,5.42557 16.18317,19.73785 8.51253,31.05672 -7.67063,11.31886 -18.9895,8.51253 -27.87621,-9.82216 -8.88671,-18.33469 -15.90253,-23.47963 -18.80241,-24.22798 -2.89987,-0.74836 -2.82389,-6.29772 -5.90207,-6.98418 z"
         style="fill:#ffffff;fill-opacity:1;stroke:#000000;stroke-width:0.69999999;stroke-linecap:butt;stroke-linejoin:miter;stroke-miterlimit:4;stroke-dasharray:none;stroke-opacity:1" />
      <path
         inkscape:connector-curvature="0"
         id="path1116"
         d="m 176.83839,189.37992 c 8.46336,-4.47862 4.67482,-2.04647 8.41661,-5.22697 3.74176,-3.18051 9.02703,-10.00925 11.08498,-14.87355 2.05798,-4.86431 4.25627,-9.86893 3.50793,-15.66868 -0.74835,-5.79975 -6.17392,-8.09158 -10.19633,-6.92228 -4.02241,1.16931 -2.62901,0.8585 -2.62901,0.8585 0,0 3.00318,4.37998 3.93862,8.49593 0.93546,4.11596 2.52571,11.2721 -0.88866,15.24773 -3.41437,3.97564 -8.18515,4.2095 -12.34786,3.27405 -4.16272,-0.93544 -7.37992,-2.59051 -7.31481,-9.15298 0.0651,-6.56247 2.96897,-13.40995 3.71335,-14.42019 0.74438,-1.01023 3.55002,-4.24561 3.55002,-4.24561 0,0 -4.0645,-2.30249 -8.60142,0.87802 -4.53689,3.1805 -8.51252,11.69304 -7.29644,17.91374 1.21608,6.22069 5.00462,15.1074 9.49473,19.22336 4.49014,4.11595 5.56829,4.61893 5.56829,4.61893"
         style="fill:#c5c5c5;fill-opacity:1;stroke:none;stroke-width:0.26499999;stroke-linecap:butt;stroke-linejoin:miter;stroke-miterlimit:4;stroke-dasharray:none;stroke-opacity:1" />
      <path
         inkscape:connector-curvature="0"
         id="path1133"
         d="m 187.41016,192.31409 c 9.6782,-0.53728 15.65706,-4.52218 20.19795,-9.3117 4.54088,-4.78951 6.73918,-15.03261 7.39397,-19.99046 0.65481,-4.95785 1.32281,-10.3989 1.32281,-10.3989 0,0 -4.92427,-9.52604 -9.04021,-14.67098 -4.11596,-5.14494 -8.65682,-7.32448 -8.65682,-7.32448 -3e-5,0 -1.58628,-1.14128 -1.77337,-1.46869 -0.18709,-0.32741 -0.75554,-1.29007 -0.75554,-1.29007 0,0 -0.59976,-0.0164 -1.72284,0.66023 -1.12307,0.67661 -2.12084,0.81033 -5.01295,0.8604 -2.89208,0.0501 -18.70903,0.5553 -25.81445,6.47661 -7.10538,5.92131 -12.71804,13.87258 -14.26151,23.74151 -1.54348,9.86893 2.24507,20.62652 4.49013,24.04089 2.24505,3.41437 5.28921,6.71644 7.81095,7.29646 2.52172,0.58002 8.10231,0.32524 8.10231,0.32524 0,0 -5.87187,-5.23229 -9.55958,-12.83478 -3.68768,-7.60249 -4.57634,-12.60711 -3.36026,-22.14863 1.21608,-9.54153 9.91568,-14.40583 16.83798,-14.82678 6.92227,-0.42095 9.22356,1.94557 9.22356,1.94557 0,0 6.262,-2.80622 11.63682,-1.15044 5.37483,1.65578 12.34784,3.46114 12.53493,10.71082 0.18709,7.24969 -1.26283,10.80437 -4.06916,18.61533 -2.80633,7.81095 -6.26748,12.67525 -9.40123,15.48158 -3.13372,2.80633 -6.12349,5.26127 -6.12349,5.26127"
         style="fill:#c5c5c5;fill-opacity:1;stroke:none;stroke-width:0.26458332px;stroke-linecap:butt;stroke-linejoin:miter;stroke-opacity:1" />
      <path
         inkscape:connector-curvature="0"
         id="path1135"
         d="m 182.09693,150.70129 c 0,0 6.05703,9.06203 5.31596,11.78213 -0.74107,2.72009 -3.59807,7.53888 -7.65966,7.06426 -4.06162,-0.47463 -5.21917,-4.41031 -4.4585,-8.31292 0.76068,-3.9026 5.69995,-9.88829 6.8022,-10.53347"
         style="fill:#c5c5c5;fill-opacity:1;stroke:none;stroke-width:0.26458332px;stroke-linecap:butt;stroke-linejoin:miter;stroke-opacity:1" />
      <path
         inkscape:connector-curvature="0"
         id="path1137"
         d="m 222.90058,152.9653 c 5.52513,8.50315 7.31578,12.66076 11.96096,13.1638 4.64519,0.50304 8.1103,-9.10401 7.45548,-16.40047 -0.65479,-7.29645 -8.59337,-10.62533 -11.03188,-10.48099 -2.4385,0.14434 -4.74234,1.05178 -8.38456,13.71766 z"
         style="fill:#c5c5c5;fill-opacity:1;stroke:none;stroke-width:0.26458332px;stroke-linecap:butt;stroke-linejoin:miter;stroke-opacity:1" />
      <path
         sodipodi:nodetypes="ccccc"
         inkscape:connector-curvature="0"
         id="path1112-3"
         d="m 216.32491,152.61304 4.86776,8.88036 1.70791,-8.5281 -4.14922,-8.58847 c -1.59025,4.34981 -2.42645,8.23621 -2.42645,8.23621"
         style="fill:#ffffff;fill-opacity:1;stroke:none;stroke-width:0.26458332px;stroke-linecap:butt;stroke-linejoin:miter;stroke-opacity:1" />
      <path
         sodipodi:nodetypes="csssssscsscssssssssssssssssssssccsscsssscscssssssssc"
         inkscape:connector-curvature="0"
         id="path1076-6-7-5"
         d="m 192.72579,123.63339 c -12.03854,-1.32291 -32.17152,1.24543 -41.2335,13.48241 -9.06198,12.23697 -11.32964,24.18431 -8.42976,36.90634 2.89987,12.72203 5.89329,23.47963 23.19899,24.13444 17.3057,0.65481 30.96318,-11.97368 34.98558,-22.54418 4.02241,-10.57052 11.78659,-26.66014 -1.40316,-31.71153 -13.18975,-5.0514 -21.23457,0.6548 -24.97634,6.08038 -3.74177,5.42557 -6.64165,18.52178 -2.24506,22.26355 4.39658,3.74177 16.93152,4.77076 18.9895,-4.49013 2.05797,-9.26089 -3.55469,-26.47305 -15.62191,-26.47305 -12.06722,0 -18.04935,8.61743 -18.79771,12.54629 -0.74835,3.92887 -2.58049,15.05594 2.93862,24.59746 5.51912,9.54152 11.55605,18.60868 26.4296,19.26349 14.87355,0.65481 30.86963,-9.72861 32.74052,-23.29254 1.87089,-13.56393 4.67722,-36.57584 12.72203,-35.07913 8.04481,1.49671 13.65747,9.35444 8.51253,21.23457 -5.14494,11.88013 -12.72203,3.74177 -21.04747,-14.59292 -8.32545,-18.33469 -16.18317,-19.8314 -19.8314,-20.86039 -3.64823,-1.02898 -4.39658,1.59026 -7.85772,1.12254 -3.46114,-0.46773 -26.66014,0.0935 -35.92103,11.69304 -9.26089,11.5995 -12.62848,24.88279 -9.35443,37.1371 3.27405,12.25431 11.5995,26.56659 32.36634,17.02507 20.76684,-9.54152 26.09887,-31.33735 24.60216,-38.72736 -1.49671,-7.39 -11.50596,-11.88013 -19.73786,-7.76418 -8.2319,4.11595 -17.49279,24.41507 -4.67721,26.3795 12.81557,1.96444 13.47038,-15.99608 4.77076,-23.66671 -8.69963,-7.67064 -19.64431,-5.79975 -23.85381,6.64165 -4.20949,12.44139 4.02241,29.37292 13.18975,35.07912 9.16735,5.70621 22.26355,9.0738 34.05014,-2.24506 11.78659,-11.31887 10.7576,-23.57317 11.88013,-30.86963 1.12253,-7.29646 5.33203,-27.50204 18.89596,-19.17659 13.56393,8.32544 5.05139,25.5376 1.49671,28.9052 -3.55469,3.36759 -10.19634,1.30962 -13.56393,-4.02241 -3.3676,-5.33203 -9.44798,-19.08304 -13.75102,-24.22798 -4.30304,-5.14494 -8.13836,-8.88671 -13.09621,-10.19633 -4.95784,-1.30962 -4.11595,1.30962 -7.95126,1.21607 -3.83532,-0.0935 -18.52178,-0.18709 -27.59558,6.45456 -9.0738,6.64165 -15.62191,19.8314 -14.59292,31.99216 1.02899,12.16077 7.76418,23.38609 15.15418,23.66672 7.39001,0.28063 21.14102,-1.49671 31.05672,-20.01849 9.9157,-18.52177 2.53092,-25.00567 -2.98872,-25.06048 -9.42172,-0.0935 -18.78606,12.24481 -16.89472,18.86581 2.61145,9.14187 12.49344,1.33037 12.11926,-3.06622 -0.37417,-4.39658 -6.73519,-17.96051 -14.49937,-16.27671 -7.76418,1.6838 -18.1476,15.43482 -4.77076,34.89204 13.37684,19.45722 32.36634,9.9157 39.47571,2.15152 7.10937,-7.76418 7.76418,-23.29254 8.60608,-29.65356 0.8419,-6.36101 6.64165,-25.16342 20.57975,-19.73785 13.93811,5.42557 16.18317,19.73785 8.51253,31.05672 -7.67063,11.31886 -18.9895,8.51253 -27.87621,-9.82216 -8.88671,-18.33469 -15.90253,-23.47963 -18.80241,-24.22798 -2.89987,-0.74836 -2.82389,-6.29772 -5.90207,-6.98418 z"
         style="fill:none;fill-opacity:1;stroke:#000000;stroke-width:0.69999999;stroke-linecap:butt;stroke-linejoin:miter;stroke-miterlimit:4;stroke-dasharray:none;stroke-opacity:1" />
    </g>
    <g
       id="g1276"
       transform="translate(231.06276,-198.60517)">
      <path
         sodipodi:nodetypes="csssssscsscssssssssssssssssssssccsscsssscscssssssssc"
         inkscape:connector-curvature="0"
         id="path1076-6"
         d="m 72.86375,123.63339 c -12.03854,-1.32291 -32.17152,1.24543 -41.2335,13.4824 -9.06198,12.23698 -11.32964,24.18432 -8.42976,36.90635 2.89987,12.72203 5.89329,23.47963 23.19899,24.13444 17.3057,0.65481 30.96318,-11.97368 34.98558,-22.54419 4.02241,-10.57051 11.78659,-26.66013 -1.40316,-31.71153 -13.18975,-5.05139 -21.23457,0.65481 -24.97634,6.08039 -3.74177,5.42557 -6.64165,18.52177 -2.24506,22.26355 4.39658,3.74177 16.93152,4.77076 18.9895,-4.49013 2.05797,-9.26089 -3.55469,-26.47305 -15.62191,-26.47305 -12.06722,0 -18.04935,8.61743 -18.79771,12.54629 -0.74835,3.92886 -2.58049,15.05594 2.93862,24.59746 5.51912,9.54152 11.55605,18.60868 26.4296,19.26349 14.87355,0.65481 30.86963,-9.72862 32.74052,-23.29254 1.87089,-13.56393 4.67722,-36.57584 12.72204,-35.07913 8.04481,1.49671 13.65747,9.35443 8.51253,21.23457 -5.14494,11.88013 -12.72204,3.74177 -21.04748,-14.59292 -8.32545,-18.33469 -16.18317,-19.8314 -19.8314,-20.86039 -3.64823,-1.02899 -4.39658,1.59026 -7.85772,1.12253 -3.46114,-0.46772 -26.66014,0.0935 -35.92103,11.69305 -9.26089,11.59949 -12.62848,24.88279 -9.35443,37.1371 3.27405,12.25431 11.5995,26.56659 32.36634,17.02507 20.76684,-9.54152 26.09887,-31.33735 24.60216,-38.72736 -1.49671,-7.39 -11.50596,-11.88013 -19.73786,-7.76418 -8.2319,4.11595 -17.49279,24.41507 -4.67721,26.3795 12.81557,1.96443 13.47038,-15.99608 4.77076,-23.66671 -8.69963,-7.67064 -19.64431,-5.79975 -23.85381,6.64165 -4.20949,12.44139 4.02241,29.37292 13.18975,35.07912 9.16735,5.7062 22.26355,9.0738 34.05014,-2.24506 11.78659,-11.31887 10.7576,-23.57318 11.88013,-30.86963 1.12253,-7.29646 5.33203,-27.50204 18.89597,-19.17659 13.56393,8.32544 5.05139,25.5376 1.49671,28.9052 -3.55469,3.36759 -10.19635,1.30962 -13.56394,-4.02241 -3.3676,-5.33203 -9.44798,-19.08304 -13.75102,-24.22798 -4.30304,-5.14494 -8.13836,-8.88671 -13.09621,-10.19633 -4.95784,-1.30963 -4.11595,1.30962 -7.95126,1.21607 -3.83532,-0.0935 -18.52178,-0.18709 -27.59558,6.45456 -9.0738,6.64165 -15.62191,19.8314 -14.59292,31.99216 1.02899,12.16077 7.76418,23.38609 15.15418,23.66672 7.39001,0.28063 21.14102,-1.49671 31.05672,-20.01849 9.9157,-18.52177 2.53092,-25.00567 -2.98872,-25.06048 -9.42172,-0.0935 -18.78606,12.24481 -16.89472,18.86581 2.61145,9.14186 12.49344,1.33037 12.11926,-3.06622 -0.37417,-4.39658 -6.73519,-17.96051 -14.49937,-16.27671 -7.76418,1.6838 -18.1476,15.43481 -4.77076,34.89204 13.37684,19.45722 32.36634,9.9157 39.47571,2.15152 7.10937,-7.76418 7.76418,-23.29254 8.60608,-29.65356 0.8419,-6.36101 6.64165,-25.16342 20.57976,-19.73785 13.93811,5.42557 16.18317,19.73785 8.51253,31.05672 -7.67063,11.31886 -18.98951,8.51253 -27.87622,-9.82216 -8.88671,-18.33469 -15.90253,-23.47963 -18.80241,-24.22798 -2.89987,-0.74836 -2.82389,-6.29772 -5.90207,-6.98418 z"
         style="fill:#c5c5c5;fill-opacity:1;stroke:#000000;stroke-width:0.69999999;stroke-linecap:butt;stroke-linejoin:miter;stroke-miterlimit:4;stroke-dasharray:none;stroke-opacity:1" />
      <path
         inkscape:connector-curvature="0"
         id="path1137-6"
         d="m 103.03856,152.9653 c 5.52513,8.50315 7.31578,12.66076 11.96097,13.1638 4.64519,0.50304 8.1103,-9.10401 7.45548,-16.40046 -0.65479,-7.29646 -8.59337,-10.62534 -11.03189,-10.481 -2.4385,0.14435 -4.74234,1.05179 -8.38456,13.71766 z"
         style="fill:#f8f8f8;fill-opacity:1;stroke:none;stroke-width:0.26458332px;stroke-linecap:butt;stroke-linejoin:miter;stroke-opacity:1" />
      <path
         inkscape:connector-curvature="0"
         id="path1133-7"
         d="m 67.43754,192.31409 c 9.6782,-0.53728 15.65706,-4.52218 20.19795,-9.31169 4.54088,-4.78951 6.73918,-15.03262 7.39397,-19.99047 0.65481,-4.95785 1.32281,-10.3989 1.32281,-10.3989 0,0 -4.92427,-9.52604 -9.04021,-14.67098 -4.11596,-5.14494 -8.65682,-7.32448 -8.65682,-7.32448 -3e-5,0 -1.58628,-1.14128 -1.77337,-1.46869 -0.18709,-0.3274 -0.75554,-1.29007 -0.75554,-1.29007 0,0 -0.59976,-0.0164 -1.72284,0.66023 -1.12307,0.67661 -2.12084,0.81034 -5.01295,0.8604 -2.89208,0.0501 -18.70903,0.5553 -25.81445,6.47661 -7.10538,5.92132 -12.71804,13.87258 -14.26151,23.74151 -1.54348,9.86893 2.24507,20.62653 4.49013,24.04089 2.24505,3.41437 5.28921,6.71644 7.81095,7.29646 2.52172,0.58002 8.10231,0.32524 8.10231,0.32524 0,0 -5.87187,-5.23229 -9.55958,-12.83478 -3.68768,-7.60249 -4.57634,-12.60711 -3.36026,-22.14863 1.21608,-9.54152 9.91568,-14.40583 16.83798,-14.82678 6.92227,-0.42095 9.22356,1.94557 9.22356,1.94557 0,0 6.262,-2.80622 11.63682,-1.15044 5.37483,1.65578 12.34784,3.46114 12.53493,10.71082 0.18709,7.24969 -1.26283,10.80438 -4.06916,18.61533 -2.80633,7.81095 -6.26748,12.67525 -9.40123,15.48158 -3.13372,2.80633 -6.12349,5.26127 -6.12349,5.26127"
         style="fill:#ffffff;fill-opacity:1;stroke:none;stroke-width:0.26458332px;stroke-linecap:butt;stroke-linejoin:miter;stroke-opacity:1" />
      <path
         inkscape:connector-curvature="0"
         id="path1116-9"
         d="m 56.98717,189.37992 c 8.46336,-4.47862 4.67482,-2.04646 8.41661,-5.22697 3.74176,-3.18051 9.02703,-10.00925 11.08498,-14.87355 2.05798,-4.86431 4.25627,-9.86893 3.50793,-15.66868 -0.74835,-5.79975 -6.17392,-8.09158 -10.19633,-6.92228 -4.02241,1.16931 -2.62901,0.8585 -2.62901,0.8585 0,0 3.00318,4.37999 3.93862,8.49594 0.93546,4.11595 2.52571,11.27209 -0.88866,15.24772 -3.41437,3.97564 -8.18515,4.2095 -12.34786,3.27405 -4.16272,-0.93544 -7.37992,-2.59051 -7.31481,-9.15298 0.0651,-6.56246 2.96897,-13.40995 3.71335,-14.42019 0.74438,-1.01023 3.55002,-4.24561 3.55002,-4.24561 0,0 -4.0645,-2.30249 -8.60142,0.87802 -4.53689,3.1805 -8.51252,11.69304 -7.29644,17.91374 1.21608,6.22069 5.00462,15.10741 9.49473,19.22336 4.49014,4.11595 5.56829,4.61893 5.56829,4.61893"
         style="fill:#ffffff;fill-opacity:1;stroke:none;stroke-width:0.26499999;stroke-linecap:butt;stroke-linejoin:miter;stroke-miterlimit:4;stroke-dasharray:none;stroke-opacity:1" />
      <path
         inkscape:connector-curvature="0"
         id="path1135-3"
         d="m 62.24022,150.70129 c 0,0 6.05703,9.06203 5.31596,11.78213 -0.74107,2.72009 -3.59807,7.53888 -7.65966,7.06426 -4.06162,-0.47463 -5.21917,-4.41031 -4.4585,-8.31292 0.76068,-3.9026 5.69995,-9.88829 6.8022,-10.53347"
         style="fill:#ffffff;fill-opacity:1;stroke:none;stroke-width:0.26458332px;stroke-linecap:butt;stroke-linejoin:miter;stroke-opacity:1" />
      <path
         sodipodi:nodetypes="ccccc"
         inkscape:connector-curvature="0"
         id="path1110-0"
         d="m 57.76174,146.74587 c 2.15152,1.44994 4.42368,3.95542 4.42368,3.95542 0,0 2.4935,-1.98505 4.92565,-3.15435 0,0 -2.6468,-3.16919 -4.19028,-4.15141 -2.38538,0.93544 -5.15905,3.35034 -5.15905,3.35034 z"
         style="fill:#ffffff;fill-opacity:1;stroke:none;stroke-width:0.26458332px;stroke-linecap:butt;stroke-linejoin:miter;stroke-opacity:1" />
      <path
         sodipodi:nodetypes="ccccc"
         inkscape:connector-curvature="0"
         id="path1108-6"
         d="m 49.82858,191.26014 c 3.87748,2.83497 8.92554,5.08535 8.92554,5.08535 4.63044,-1.91766 8.33922,-4.03623 8.33922,-4.03623 -5.75298,-0.74835 -7.63804,-1.66649 -10.11696,-2.92934 -3.46114,1.12253 -7.1478,1.88022 -7.1478,1.88022"
         style="fill:#ffffff;fill-opacity:1;stroke:none;stroke-width:0.26458332px;stroke-linecap:butt;stroke-linejoin:miter;stroke-opacity:1" />
      <path
         sodipodi:nodetypes="ccccc"
         inkscape:connector-curvature="0"
         id="path1112-2"
         d="m 96.46724,152.59498 4.86776,8.88036 1.70791,-8.5281 -4.14922,-8.58847 c -1.59025,4.34981 -2.42645,8.23621 -2.42645,8.23621"
         style="fill:#ffffff;fill-opacity:1;stroke:none;stroke-width:0.26458332px;stroke-linecap:butt;stroke-linejoin:miter;stroke-opacity:1" />
      <path
         sodipodi:nodetypes="csssssscsscssssssssssssssssssssccsscsssscscssssssssc"
         inkscape:connector-curvature="0"
         id="path1076-6-0"
         d="m 72.86375,123.63339 c -12.03854,-1.32291 -32.17152,1.24543 -41.2335,13.48241 -9.06198,12.23697 -11.32964,24.18431 -8.42976,36.90634 2.89987,12.72203 5.89329,23.47963 23.19899,24.13444 17.3057,0.65481 30.96318,-11.97368 34.98558,-22.54418 4.02241,-10.57052 11.78659,-26.66014 -1.40316,-31.71153 -13.18975,-5.0514 -21.23457,0.6548 -24.97634,6.08038 -3.74177,5.42557 -6.64165,18.52178 -2.24506,22.26355 4.39658,3.74177 16.93152,4.77076 18.9895,-4.49013 2.05797,-9.26089 -3.55469,-26.47305 -15.62191,-26.47305 -12.06722,0 -18.04935,8.61743 -18.79771,12.54629 -0.74835,3.92887 -2.58049,15.05594 2.93862,24.59746 5.51912,9.54152 11.55605,18.60868 26.4296,19.26349 14.87355,0.65481 30.86963,-9.72861 32.74052,-23.29254 1.87089,-13.56393 4.67722,-36.57584 12.72204,-35.07913 8.04481,1.49671 13.65747,9.35444 8.51253,21.23457 -5.14494,11.88013 -12.72204,3.74177 -21.04748,-14.59292 -8.32545,-18.33469 -16.18317,-19.8314 -19.8314,-20.86039 -3.64823,-1.02898 -4.39658,1.59026 -7.85772,1.12254 -3.46114,-0.46773 -26.66014,0.0935 -35.92103,11.69304 -9.26089,11.5995 -12.62848,24.88279 -9.35443,37.1371 3.27405,12.25431 11.5995,26.56659 32.36634,17.02507 20.76684,-9.54152 26.09887,-31.33735 24.60216,-38.72736 -1.49671,-7.39 -11.50596,-11.88013 -19.73786,-7.76418 -8.2319,4.11595 -17.49279,24.41507 -4.67721,26.3795 12.81557,1.96444 13.47038,-15.99608 4.77076,-23.66671 -8.69963,-7.67064 -19.64431,-5.79975 -23.85381,6.64165 -4.20949,12.44139 4.02241,29.37292 13.18975,35.07912 9.16735,5.70621 22.26355,9.0738 34.05014,-2.24506 11.78659,-11.31887 10.7576,-23.57317 11.88013,-30.86963 1.12253,-7.29646 5.33203,-27.50204 18.89597,-19.17659 13.56393,8.32544 5.05139,25.5376 1.49671,28.9052 -3.55469,3.36759 -10.19635,1.30962 -13.56394,-4.02241 -3.3676,-5.33203 -9.44798,-19.08304 -13.75102,-24.22798 -4.30304,-5.14494 -8.13836,-8.88671 -13.09621,-10.19633 -4.95784,-1.30962 -4.11595,1.30962 -7.95126,1.21607 -3.83532,-0.0935 -18.52178,-0.18709 -27.59558,6.45456 -9.0738,6.64165 -15.62191,19.8314 -14.59292,31.99216 1.02899,12.16077 7.76418,23.38609 15.15418,23.66672 7.39001,0.28063 21.14102,-1.49671 31.05672,-20.01849 9.9157,-18.52177 2.53092,-25.00567 -2.98872,-25.06048 -9.42172,-0.0935 -18.78606,12.24481 -16.89472,18.86581 2.61145,9.14187 12.49344,1.33037 12.11926,-3.06622 -0.37417,-4.39658 -6.73519,-17.96051 -14.49937,-16.27671 -7.76418,1.6838 -18.1476,15.43482 -4.77076,34.89204 13.37684,19.45722 32.36634,9.9157 39.47571,2.15152 7.10937,-7.76418 7.76418,-23.29254 8.60608,-29.65356 0.8419,-6.36101 6.64165,-25.16342 20.57976,-19.73785 13.93811,5.42557 16.18317,19.73785 8.51253,31.05672 -7.67063,11.31886 -18.98951,8.51253 -27.87622,-9.82216 -8.88671,-18.33469 -15.90253,-23.47963 -18.80241,-24.22798 -2.89987,-0.74836 -2.82389,-6.29772 -5.90207,-6.98418 z"
         style="fill:none;fill-opacity:1;stroke:#000000;stroke-width:0.69999999;stroke-linecap:butt;stroke-linejoin:miter;stroke-miterlimit:4;stroke-dasharray:none;stroke-opacity:1" />
    </g>
  </g>
</svg>
