<?xml version="1.0" encoding="UTF-8" standalone="no"?>
<!-- Created with Inkscape (http://www.inkscape.org/) -->

<svg
   xmlns:dc="http://purl.org/dc/elements/1.1/"
   xmlns:cc="http://creativecommons.org/ns#"
   xmlns:rdf="http://www.w3.org/1999/02/22-rdf-syntax-ns#"
   xmlns:svg="http://www.w3.org/2000/svg"
   xmlns="http://www.w3.org/2000/svg"
   xmlns:sodipodi="http://sodipodi.sourceforge.net/DTD/sodipodi-0.dtd"
   xmlns:inkscape="http://www.inkscape.org/namespaces/inkscape"
   width="336.51007mm"
   height="86.561539mm"
   viewBox="0 0 336.51007 86.561539"
   version="1.1"
   id="svg987"
   sodipodi:docname="pathstrands.svg"
   inkscape:version="0.92.5 (2060ec1f9f, 2020-04-08)">
  <defs
     id="defs981">
    <marker
       inkscape:stockid="Arrow2Lstart"
       orient="auto"
       refY="0"
       refX="0"
       id="marker2356"
       style="overflow:visible"
       inkscape:isstock="true">
      <path
         id="path2354"
         style="fill:#000000;fill-opacity:1;fill-rule:evenodd;stroke:#000000;stroke-width:0.625;stroke-linejoin:round;stroke-opacity:1"
         d="M 8.7185878,4.0337352 -2.2072895,0.01601326 8.7185884,-4.0017078 c -1.7454984,2.3720609 -1.7354408,5.6174519 -6e-7,8.035443 z"
         transform="matrix(1.1,0,0,1.1,1.1,0)"
         inkscape:connector-curvature="0" />
    </marker>
    <marker
       inkscape:stockid="Arrow2Mend"
       orient="auto"
       refY="0"
       refX="0"
       id="Arrow2Mend"
       style="overflow:visible"
       inkscape:isstock="true">
      <path
         id="path1953"
         style="fill:#000000;fill-opacity:1;fill-rule:evenodd;stroke:#000000;stroke-width:0.625;stroke-linejoin:round;stroke-opacity:1"
         d="M 8.7185878,4.0337352 -2.2072895,0.01601326 8.7185884,-4.0017078 c -1.7454984,2.3720609 -1.7354408,5.6174519 -6e-7,8.035443 z"
         transform="scale(-0.6)"
         inkscape:connector-curvature="0" />
    </marker>
    <marker
       inkscape:stockid="Arrow2Lstart"
       orient="auto"
       refY="0"
       refX="0"
       id="Arrow2Lstart"
       style="overflow:visible"
       inkscape:isstock="true">
      <path
         id="path1944"
         style="fill:#000000;fill-opacity:1;fill-rule:evenodd;stroke:#000000;stroke-width:0.625;stroke-linejoin:round;stroke-opacity:1"
         d="M 8.7185878,4.0337352 -2.2072895,0.01601326 8.7185884,-4.0017078 c -1.7454984,2.3720609 -1.7354408,5.6174519 -6e-7,8.035443 z"
         transform="matrix(1.1,0,0,1.1,1.1,0)"
         inkscape:connector-curvature="0" />
    </marker>
    <marker
       inkscape:stockid="Arrow2Lend"
       orient="auto"
       refY="0"
       refX="0"
       id="marker1852"
       style="overflow:visible"
       inkscape:isstock="true">
      <path
         id="path1850"
         style="fill:#000000;fill-opacity:1;fill-rule:evenodd;stroke:#000000;stroke-width:0.625;stroke-linejoin:round;stroke-opacity:1"
         d="M 8.7185878,4.0337352 -2.2072895,0.01601326 8.7185884,-4.0017078 c -1.7454984,2.3720609 -1.7354408,5.6174519 -6e-7,8.035443 z"
         transform="matrix(-1.1,0,0,-1.1,-1.1,0)"
         inkscape:connector-curvature="0" />
    </marker>
    <marker
       inkscape:isstock="true"
       style="overflow:visible"
       id="marker1578"
       refX="0"
       refY="0"
       orient="auto"
       inkscape:stockid="Arrow2Lend"
       inkscape:collect="always">
      <path
         transform="matrix(-1.1,0,0,-1.1,-1.1,0)"
         d="M 8.7185878,4.0337352 -2.2072895,0.01601326 8.7185884,-4.0017078 c -1.7454984,2.3720609 -1.7354408,5.6174519 -6e-7,8.035443 z"
         style="fill:#000000;fill-opacity:1;fill-rule:evenodd;stroke:#000000;stroke-width:0.625;stroke-linejoin:round;stroke-opacity:1"
         id="path1576"
         inkscape:connector-curvature="0" />
    </marker>
    <marker
       inkscape:stockid="Arrow2Lend"
       orient="auto"
       refY="0"
       refX="0"
       id="marker1496"
       style="overflow:visible"
       inkscape:isstock="true"
       inkscape:collect="always">
      <path
         id="path1494"
         style="fill:#000000;fill-opacity:1;fill-rule:evenodd;stroke:#000000;stroke-width:0.625;stroke-linejoin:round;stroke-opacity:1"
         d="M 8.7185878,4.0337352 -2.2072895,0.01601326 8.7185884,-4.0017078 c -1.7454984,2.3720609 -1.7354408,5.6174519 -6e-7,8.035443 z"
         transform="matrix(-1.1,0,0,-1.1,-1.1,0)"
         inkscape:connector-curvature="0" />
    </marker>
    <marker
       inkscape:isstock="true"
       style="overflow:visible"
       id="marker1420"
       refX="0"
       refY="0"
       orient="auto"
       inkscape:stockid="Arrow2Lend"
       inkscape:collect="always">
      <path
         transform="matrix(-1.1,0,0,-1.1,-1.1,0)"
         d="M 8.7185878,4.0337352 -2.2072895,0.01601326 8.7185884,-4.0017078 c -1.7454984,2.3720609 -1.7354408,5.6174519 -6e-7,8.035443 z"
         style="fill:#000000;fill-opacity:1;fill-rule:evenodd;stroke:#000000;stroke-width:0.625;stroke-linejoin:round;stroke-opacity:1"
         id="path1418"
         inkscape:connector-curvature="0" />
    </marker>
    <marker
       inkscape:stockid="Arrow2Lend"
       orient="auto"
       refY="0"
       refX="0"
       id="marker1350"
       style="overflow:visible"
       inkscape:isstock="true"
       inkscape:collect="always">
      <path
         id="path1348"
         style="fill:#000000;fill-opacity:1;fill-rule:evenodd;stroke:#000000;stroke-width:0.625;stroke-linejoin:round;stroke-opacity:1"
         d="M 8.7185878,4.0337352 -2.2072895,0.01601326 8.7185884,-4.0017078 c -1.7454984,2.3720609 -1.7354408,5.6174519 -6e-7,8.035443 z"
         transform="matrix(-1.1,0,0,-1.1,-1.1,0)"
         inkscape:connector-curvature="0" />
    </marker>
    <marker
       inkscape:stockid="Arrow1Lend"
       orient="auto"
       refY="0"
       refX="0"
       id="Arrow1Lend"
       style="overflow:visible"
       inkscape:isstock="true">
      <path
         id="path913"
         d="M 0,0 5,-5 -12.5,0 5,5 Z"
         style="fill:#000000;fill-opacity:1;fill-rule:evenodd;stroke:#000000;stroke-width:1.00000003pt;stroke-opacity:1"
         transform="matrix(-0.8,0,0,-0.8,-10,0)"
         inkscape:connector-curvature="0" />
    </marker>
    <marker
       inkscape:stockid="Arrow1Lstart"
       orient="auto"
       refY="0"
       refX="0"
       id="marker2581"
       style="overflow:visible"
       inkscape:isstock="true">
      <path
         id="path2579"
         d="M 0,0 5,-5 -12.5,0 5,5 Z"
         style="fill:#000000;fill-opacity:1;fill-rule:evenodd;stroke:#000000;stroke-width:1.00000003pt;stroke-opacity:1"
         transform="matrix(0.8,0,0,0.8,10,0)"
         inkscape:connector-curvature="0" />
    </marker>
    <marker
       inkscape:stockid="Arrow1Lstart"
       orient="auto"
       refY="0"
       refX="0"
       id="marker2547"
       style="overflow:visible"
       inkscape:isstock="true">
      <path
         id="path2545"
         d="M 0,0 5,-5 -12.5,0 5,5 Z"
         style="fill:#000000;fill-opacity:1;fill-rule:evenodd;stroke:#000000;stroke-width:1.00000003pt;stroke-opacity:1"
         transform="matrix(0.8,0,0,0.8,10,0)"
         inkscape:connector-curvature="0" />
    </marker>
    <marker
       inkscape:stockid="Arrow1Lstart"
       orient="auto"
       refY="0"
       refX="0"
       id="marker2501"
       style="overflow:visible"
       inkscape:isstock="true">
      <path
         id="path2499"
         d="M 0,0 5,-5 -12.5,0 5,5 Z"
         style="fill:#000000;fill-opacity:1;fill-rule:evenodd;stroke:#000000;stroke-width:1.00000003pt;stroke-opacity:1"
         transform="matrix(0.8,0,0,0.8,10,0)"
         inkscape:connector-curvature="0" />
    </marker>
    <marker
       inkscape:stockid="Arrow1Lstart"
       orient="auto"
       refY="0"
       refX="0"
       id="marker2467"
       style="overflow:visible"
       inkscape:isstock="true">
      <path
         id="path2465"
         d="M 0,0 5,-5 -12.5,0 5,5 Z"
         style="fill:#000000;fill-opacity:1;fill-rule:evenodd;stroke:#000000;stroke-width:1.00000003pt;stroke-opacity:1"
         transform="matrix(0.8,0,0,0.8,10,0)"
         inkscape:connector-curvature="0" />
    </marker>
    <marker
       inkscape:stockid="Arrow2Lstart"
       orient="auto"
       refY="0"
       refX="0"
       id="marker2356-7"
       style="overflow:visible"
       inkscape:isstock="true">
      <path
         inkscape:connector-curvature="0"
         id="path2354-0"
         style="fill:#000000;fill-opacity:1;fill-rule:evenodd;stroke:#000000;stroke-width:0.625;stroke-linejoin:round;stroke-opacity:1"
         d="M 8.7185878,4.0337352 -2.2072895,0.01601326 8.7185884,-4.0017078 c -1.7454984,2.3720609 -1.7354408,5.6174519 -6e-7,8.035443 z"
         transform="matrix(1.1,0,0,1.1,1.1,0)" />
    </marker>
    <clipPath
       clipPathUnits="userSpaceOnUse"
       id="clipPath1164">
      <circle
         style="opacity:1;fill:none;fill-opacity:1;stroke:#555555;stroke-width:0.49489436;stroke-linecap:round;stroke-linejoin:round;stroke-miterlimit:4;stroke-dasharray:0.98978869, 1.97957738;stroke-dashoffset:0;stroke-opacity:1;paint-order:fill markers stroke"
         id="circle1166"
         cx="207.98471"
         cy="45.410152"
         r="19.598337" />
    </clipPath>
  </defs>
  <sodipodi:namedview
     id="base"
     pagecolor="#ffffff"
     bordercolor="#666666"
     borderopacity="1.0"
     inkscape:pageopacity="0.0"
     inkscape:pageshadow="2"
     inkscape:zoom="0.70710678"
     inkscape:cx="623.85227"
     inkscape:cy="201.82597"
     inkscape:document-units="mm"
     inkscape:current-layer="layer1"
     showgrid="false"
     inkscape:snap-bbox="true"
     inkscape:bbox-nodes="true"
     inkscape:object-paths="false"
     inkscape:snap-intersection-paths="true"
     inkscape:snap-smooth-nodes="true"
     fit-margin-top="0"
     fit-margin-left="0"
     fit-margin-right="0"
     fit-margin-bottom="0"
     inkscape:window-width="1920"
     inkscape:window-height="1057"
     inkscape:window-x="1920"
     inkscape:window-y="0"
     inkscape:window-maximized="1"
     inkscape:snap-global="false"
     inkscape:snap-object-midpoints="true"
     inkscape:snap-bbox-midpoints="true"
     inkscape:object-nodes="true"
     inkscape:snap-nodes="true"
     inkscape:lockguides="true"
     showguides="false" />
  <metadata
     id="metadata984">
    <rdf:RDF>
      <cc:Work
         rdf:about="">
        <dc:format>image/svg+xml</dc:format>
        <dc:type
           rdf:resource="http://purl.org/dc/dcmitype/StillImage" />
        <dc:title />
      </cc:Work>
    </rdf:RDF>
  </metadata>
  <g
     inkscape:label="Layer 1"
     inkscape:groupmode="layer"
     id="layer1"
     transform="translate(-12.142185,-14.279637)">
    <path
       style="fill:none;stroke:#000000;stroke-width:0.89999998;stroke-linecap:round;stroke-linejoin:round;stroke-miterlimit:4;stroke-dasharray:none;stroke-opacity:1;marker-end:url(#marker1350)"
       d="m 102.20166,-0.44272107 c 25.07442,-40.57126193 22.45064,-51.02124593 0,-81.14252193"
       id="path2116-5"
       inkscape:connector-curvature="0"
       sodipodi:nodetypes="cc" />
    <path
       style="fill:none;stroke:#000000;stroke-width:0.89999998;stroke-linecap:round;stroke-linejoin:round;stroke-miterlimit:4;stroke-dasharray:none;stroke-opacity:1;marker-end:url(#marker1420)"
       d="m 226.90535,-10.171332 c -25.07442,-40.571262 -33.86759,-40.009994 0,-81.142522"
       id="path2114-4"
       inkscape:connector-curvature="0"
       sodipodi:nodetypes="cc" />
    <path
       style="fill:none;stroke:#000000;stroke-width:0.89999998;stroke-linecap:round;stroke-linejoin:round;stroke-miterlimit:4;stroke-dasharray:none;stroke-opacity:1;marker-end:url(#marker1496)"
       d="m 267.97253,-2.3136082 c 25.07442,-40.5712618 22.45064,-51.0212458 0,-81.1425218"
       id="path2116-5-4"
       inkscape:connector-curvature="0"
       sodipodi:nodetypes="cc" />
    <path
       style="fill:none;stroke:#000000;stroke-width:0.89999998;stroke-linecap:round;stroke-linejoin:round;stroke-miterlimit:4;stroke-dasharray:none;stroke-opacity:1;marker-end:url(#marker1578)"
       d="m 299.26982,-2.3136082 c -25.07443,-40.5712618 -33.86759,-40.0099938 0,-81.1425218"
       id="path2114-4-7"
       inkscape:connector-curvature="0"
       sodipodi:nodetypes="cc" />
    <circle
       style="opacity:1;fill:#100000;fill-opacity:1;stroke:none;stroke-width:0.66432709;stroke-linecap:round;stroke-linejoin:round;stroke-miterlimit:4;stroke-dasharray:none;stroke-dashoffset:0;stroke-opacity:1;paint-order:fill markers stroke"
       id="path1700-3-6"
       cx="282.41037"
       cy="-60.83799"
       r="1.9529985" />
    <circle
       style="opacity:1;fill:#100000;fill-opacity:1;stroke:none;stroke-width:0.66432709;stroke-linecap:round;stroke-linejoin:round;stroke-miterlimit:4;stroke-dasharray:none;stroke-dashoffset:0;stroke-opacity:1;paint-order:fill markers stroke"
       id="path1700-3-6-7"
       cx="282.20721"
       cy="-29.478983"
       r="1.9529986" />
    <circle
       style="opacity:1;fill:#000000;fill-opacity:1;stroke:none;stroke-width:0.66432709;stroke-linecap:round;stroke-linejoin:round;stroke-miterlimit:4;stroke-dasharray:none;stroke-dashoffset:0;stroke-opacity:1;paint-order:fill markers stroke"
       id="path1700-3-6-7-5"
       cx="163.0675"
       cy="-35.377579"
       r="1.9529986" />
    <path
       style="fill:none;stroke:#000000;stroke-width:0.90000004;stroke-linecap:round;stroke-linejoin:round;stroke-miterlimit:4;stroke-dasharray:none;stroke-opacity:1"
       d="m 70.286595,-12.137581 -6.671082,-2.752098 5.46309,-4.715085"
       id="path4742-6-0"
       inkscape:connector-curvature="0" />
    <path
       style="fill:none;stroke:#000000;stroke-width:0.69999999;stroke-linecap:butt;stroke-linejoin:miter;stroke-miterlimit:4;stroke-dasharray:none;stroke-opacity:1"
       d="m 61.339852,23.416784 c -45.50281,4.363283 -42.79274,44.223302 -34.37784,59.183126 8.4149,14.959819 32.68699,7.580559 40.45913,-1.124349 8.04163,-9.006743 21.75193,-32.810035 4.27223,-39.797277 -17.53223,-7.008243 -30.86145,25.306309 -15.52608,27.488405 19.72722,2.10116 5.20014,-41.779456 -14.89844,-24.808239 -15.78926,14.044247 1.96443,50.832089 26.42997,47.247976 10.55695,-1.546558 20.49116,-8.642606 24.37941,-18.401896 5.40902,-13.576342 1.29148,-45.213039 20.749608,-39.325651 18.14917,5.454615 6.46093,34.437742 -5.06206,32.241263 C 95.660412,63.812653 94.057122,20.427195 61.339852,23.416784 Z"
       id="path1047-3"
       inkscape:connector-curvature="0"
       sodipodi:nodetypes="csssccsscsc" />
    <g
       id="g1114">
      <path
         sodipodi:nodetypes="cssssssssssscsssscsssccssssssscscssssssssssssc"
         inkscape:connector-curvature="0"
         id="path1069-3"
         d="m 159.24031,87.313378 c -3.54091,-4.38849 -11.82164,-11.929234 -11.54613,-28.518501 0.0887,-5.340728 -1.59586,-18.158982 18.63709,-22.054137 7.55983,-1.455385 17.90266,6.572386 19.35565,20.880012 0.72465,7.135736 -1.19371,16.22417 -12.67018,15.007119 -4.38431,-0.464947 -16.07895,1.012801 -9.8124,-20.244805 0.38561,-1.308063 5.10751,-19.116126 27.72347,-13.544128 11.21338,2.762693 12.05622,13.204011 5.74986,30.995999 -2.62998,7.419888 -8.29622,15.105936 -14.53117,18.73231 -6.49517,3.777723 -14.3264,-2.821906 -14.31859,-2.825925 3.50814,-1.804649 9.93939,-6.954208 10.53875,-7.522022 1.25677,-1.190625 9.26042,-11.641667 10.98021,-17.131771 1.71979,-5.490104 2.38125,-12.633854 -0.8599,-15.08125 -3.24114,-2.447396 -10.58333,-1.190625 -14.88281,4.564063 -4.29948,5.754687 -6.28385,12.567708 -1.98437,13.890625 4.29948,1.322916 6.87916,-3.307292 6.28385,-6.217709 -0.59531,-2.910416 -3.77031,-11.509375 -8.06979,-13.427604 -4.29948,-1.918229 -8.92969,0.132292 -11.8401,5.357813 -2.91042,5.22552 -4.10105,12.170833 0.7276,21.10052 4.82865,8.929688 10.18646,14.485938 16.00729,15.875 5.82083,1.389063 13.03073,-0.529166 17.52865,-3.241145 4.49791,-2.71198 9.19427,-6.879167 11.50937,-14.552084 2.31511,-7.672916 1.78594,-16.536458 4.43177,-24.010937 2.64584,-7.474479 6.68073,-17.660937 14.61823,-17.396354 7.9375,0.264583 20.96824,6.217708 20.63751,17.92552 -0.33074,11.707813 -4.82864,24.738542 -15.87501,23.680209 -11.04635,-1.058334 -15.61042,-10.980209 -22.225,-23.481771 -6.61458,-12.501562 -12.96458,-17.330208 -16.33802,-18.057812 -3.37344,-0.727604 -21.43125,-1.190625 -29.43489,3.902604 -8.00365,5.093229 -16.53646,16.205729 -16.99948,28.310416 -0.46302,12.104688 7.40833,24.143229 9.525,25.135417 2.11666,0.992187 7.32097,2.101286 13.02718,0.464259 5.7062,-1.637025 6.36101,8.185129 6.36101,8.185129 -2.43215,0.795128 -9.21412,2.291837 -13.00267,1.870887 -3.78854,-0.420949 -13.47038,0.561266 -18.89595,-9.72861 -5.42557,-10.289876 -7.26718,-21.561457 -5.94426,-32.806248 1.32292,-11.244792 9.98802,-24.738542 19.18229,-28.707292 9.19427,-3.96875 21.43125,-8.466666 36.5125,-4.960937 15.08125,3.505729 17.13177,10.384896 23.0849,20.703645 5.95312,10.31875 9.85572,21.034375 15.0151,21.100521 5.15937,0.06615 8.33437,-15.941146 3.43958,-20.174479 -4.89479,-4.233333 -8.86354,-7.540625 -12.7,4.431771 -3.83646,11.972396 -4.23333,26.789062 -6.41614,31.022396 -2.18281,4.233333 -7.9375,16.205729 -23.54792,18.388541 -15.61042,2.182813 -17.38419,-0.525843 -20.56195,-2.011772 -2.12014,-0.991386 -4.35095,-1.337355 -8.42013,-5.827483 z"
         style="opacity:1;fill:#818181;fill-opacity:1;stroke:#dfdfdf;stroke-width:1;stroke-linecap:round;stroke-linejoin:round;stroke-miterlimit:4;stroke-dasharray:2.00000006, 4.00000011000000022;stroke-dashoffset:0;stroke-opacity:1" />
      <path
         sodipodi:nodetypes="cssssssssssscsssscsssccssssssscscssssssssssssc"
         inkscape:connector-curvature="0"
         id="path1069"
         d="m 159.24031,87.313378 c -3.54091,-4.388489 -11.82164,-11.929235 -11.54613,-28.518501 0.0887,-5.340729 -1.59586,-18.158982 18.63709,-22.054137 7.55983,-1.455385 17.90266,6.572386 19.35565,20.880013 0.72465,7.135734 -1.19371,16.22417 -12.67018,15.007117 -4.38431,-0.464945 -16.07895,1.012803 -9.8124,-20.244805 0.38561,-1.308062 5.10751,-19.116125 27.72347,-13.544127 11.21338,2.762693 12.05622,13.204012 5.74986,30.995999 -2.62998,7.419888 -8.29622,15.105935 -14.53117,18.732309 -6.49517,3.777723 -14.3264,-2.821904 -14.31859,-2.825924 3.50814,-1.804648 9.93939,-6.954209 10.53875,-7.522022 1.25677,-1.190625 9.26042,-11.641667 10.98021,-17.131771 1.71979,-5.490104 2.38125,-12.633854 -0.8599,-15.08125 -3.24114,-2.447396 -10.58333,-1.190625 -14.88281,4.564063 -4.29948,5.754687 -6.28385,12.567708 -1.98437,13.890624 4.29948,1.322917 6.87916,-3.307291 6.28385,-6.217708 -0.59531,-2.910416 -3.77031,-11.509375 -8.06979,-13.427604 -4.29948,-1.918229 -8.92969,0.132292 -11.8401,5.357813 -2.91042,5.22552 -4.10105,12.170833 0.7276,21.10052 4.82865,8.929688 10.18646,14.485938 16.00729,15.875 5.82083,1.389062 13.03073,-0.529167 17.52865,-3.241146 4.49791,-2.711979 9.19427,-6.879166 11.50937,-14.552083 2.31511,-7.672917 1.78594,-16.536458 4.43177,-24.010937 2.64584,-7.474479 6.68073,-17.660937 14.61823,-17.396354 7.9375,0.264583 20.96823,6.217708 20.6375,17.925521 -0.33073,11.707812 -4.82864,24.738541 -15.875,23.680208 -11.04635,-1.058334 -15.61042,-10.980209 -22.225,-23.481771 -6.61458,-12.501562 -12.96458,-17.330208 -16.33802,-18.057812 -3.37344,-0.727604 -21.43125,-1.190625 -29.43489,3.902604 -8.00365,5.093229 -16.53646,16.205729 -16.99948,28.310416 -0.46302,12.104688 7.40833,24.143229 9.525,25.135417 2.11666,0.992187 7.32097,2.101286 13.02718,0.464259 5.7062,-1.637025 6.36101,8.185129 6.36101,8.185129 -2.43215,0.795127 -9.21412,2.291836 -13.00267,1.870887 -3.78854,-0.42095 -13.47038,0.561265 -18.89595,-9.72861 -5.42557,-10.289876 -7.26718,-21.561457 -5.94426,-32.806248 1.32292,-11.244792 9.98802,-24.738542 19.18229,-28.707292 9.19427,-3.96875 21.43125,-8.466666 36.5125,-4.960937 15.08125,3.505729 17.13177,10.384896 23.0849,20.703645 5.95312,10.31875 9.85572,21.034375 15.0151,21.100521 5.15937,0.06615 8.33437,-15.941146 3.43958,-20.174479 -4.89479,-4.233333 -8.86354,-7.540625 -12.7,4.431771 -3.83646,11.972396 -4.23333,26.789062 -6.41614,31.022395 -2.18281,4.233334 -7.9375,16.205729 -23.54792,18.388542 -15.61042,2.182812 -17.38419,-0.525843 -20.56195,-2.011773 -2.12014,-0.991386 -4.35095,-1.337354 -8.42013,-5.827482 z"
         style="fill:#c5c5c5;fill-opacity:1;stroke:none;stroke-width:0.26458332px;stroke-linecap:butt;stroke-linejoin:miter;stroke-opacity:1" />
      <path
         sodipodi:nodetypes="csssssscsscssssssssssssssssssssccsscsssscscssssssssc"
         inkscape:connector-curvature="0"
         id="path1076"
         d="m 185.16979,20.443446 c -12.03854,-1.322916 -32.17152,1.245423 -41.2335,13.482402 -9.06198,12.236979 -11.32964,24.184316 -8.42976,36.906345 2.89987,12.722029 5.89329,23.479627 23.19899,24.134436 17.3057,0.65481 30.96318,-11.973673 34.98558,-22.544182 4.02241,-10.570512 11.78659,-26.660136 -1.40316,-31.711529 -13.18975,-5.051395 -21.23457,0.654809 -24.97634,6.080381 -3.74177,5.42557 -6.64165,18.521778 -2.24506,22.26355 4.39658,3.741774 16.93152,4.770763 18.9895,-4.490127 2.05797,-9.260888 -3.55469,-26.473047 -15.62191,-26.473047 -12.06722,0 -18.04935,8.617429 -18.79771,12.546291 -0.74835,3.928861 -2.58049,15.055936 2.93862,24.597456 5.51912,9.541524 11.55605,18.608676 26.4296,19.263488 14.87355,0.654809 30.86963,-9.728613 32.74052,-23.292541 1.87089,-13.563928 4.67722,-36.575834 12.72203,-35.079125 8.04481,1.49671 13.65747,9.354434 8.51253,21.234564 -5.14494,11.88013 -12.72203,3.741775 -21.04747,-14.592916 -8.32545,-18.334689 -16.18317,-19.831399 -19.8314,-20.860386 -3.64823,-1.028988 -4.39658,1.590253 -7.85772,1.122532 -3.46114,-0.467722 -26.66014,0.09354 -35.92103,11.693041 -9.26089,11.599498 -12.62848,24.882793 -9.35443,37.137102 3.27405,12.254307 11.5995,26.566588 32.36634,17.025067 20.76684,-9.541521 26.09887,-31.33735 24.60216,-38.727353 -1.49671,-7.390003 -11.50596,-11.880131 -19.73786,-7.76418 -8.2319,4.115951 -17.49279,24.41507 -4.67721,26.379501 12.81557,1.964431 13.47038,-15.996081 4.77076,-23.666714 -8.69963,-7.670637 -19.64431,-5.799749 -23.85381,6.641647 -4.20949,12.441396 4.02241,29.372919 13.18975,35.079125 9.16735,5.706202 22.26355,9.073795 34.05014,-2.245064 11.78659,-11.318864 10.7576,-23.573173 11.88013,-30.86963 1.12253,-7.29646 5.33203,-27.502035 18.89596,-19.176589 13.56393,8.325444 5.05139,25.537603 1.49671,28.905199 -3.55469,3.367595 -10.19634,1.309621 -13.56393,-4.022408 -3.3676,-5.332026 -9.44798,-19.083043 -13.75102,-24.227981 -4.30304,-5.144938 -8.13836,-8.886712 -13.09621,-10.196332 -4.95784,-1.309621 -4.11595,1.30962 -7.95126,1.216076 -3.83532,-0.09354 -18.52178,-0.187089 -27.59558,6.454559 -9.0738,6.641649 -15.62191,19.831398 -14.59292,31.992161 1.02899,12.160766 7.76418,23.386084 15.15418,23.666717 7.39001,0.280633 21.14102,-1.496708 31.05672,-20.018486 9.9157,-18.521778 2.53092,-25.005675 -2.98872,-25.060481 -9.42172,-0.09354 -18.78606,12.244807 -16.89472,18.865805 2.61145,9.141867 12.49344,1.33037 12.11926,-3.066214 -0.37417,-4.396584 -6.73519,-17.960512 -14.49937,-16.276714 -7.76418,1.683798 -18.1476,15.434815 -4.77076,34.892038 13.37684,19.457219 32.36634,9.915699 39.47571,2.151517 7.10937,-7.764179 7.76418,-23.292538 8.60608,-29.653552 0.8419,-6.361015 6.64165,-25.163426 20.57975,-19.737855 13.93811,5.425571 16.18317,19.737855 8.51253,31.056719 -7.67063,11.318864 -18.9895,8.512535 -27.87621,-9.822156 -8.88671,-18.334689 -15.90253,-23.479627 -18.80241,-24.227982 -2.89987,-0.748354 -2.82389,-6.297714 -5.90207,-6.984175 z"
         style="fill:none;stroke:#000000;stroke-width:0.69999999;stroke-linecap:butt;stroke-linejoin:miter;stroke-miterlimit:4;stroke-dasharray:none;stroke-opacity:1" />
    </g>
    <path
       style="fill:none;stroke:#000000;stroke-width:0.37010634;stroke-linecap:round;stroke-linejoin:miter;stroke-miterlimit:4;stroke-dasharray:1.11031902, 1.11031902;stroke-dashoffset:0;stroke-opacity:1"
       d="m 216.67643,68.229547 c 13.83451,20.85101 40.57511,8.661529 49.51034,5.190229"
       id="path1079-3"
       inkscape:connector-curvature="0"
       sodipodi:nodetypes="cc" />
    <path
       style="fill:none;stroke:#000000;stroke-width:0.37010634;stroke-linecap:round;stroke-linejoin:round;stroke-miterlimit:4;stroke-dasharray:1.11031902, 1.11031902;stroke-dashoffset:0;stroke-opacity:1"
       d="m 261.54331,71.34158 6.17541,1.445965 -4.07373,4.861186"
       id="path4742-6-0-6-2"
       inkscape:connector-curvature="0"
       sodipodi:nodetypes="ccc" />
    <g
       id="g1179"
       transform="translate(0,-0.29358327)">
      <g
         clip-path="url(#clipPath1164)"
         id="g1114-7"
         transform="matrix(1.81857,0,0,1.81857,-73.478673,-24.726934)">
        <path
           style="opacity:1;fill:#dfdfdf;fill-opacity:1;stroke:#dfdfdf;stroke-width:1;stroke-linecap:round;stroke-linejoin:round;stroke-miterlimit:4;stroke-dasharray:2.00000006, 4.00000011000000022;stroke-dashoffset:0;stroke-opacity:1"
           d="m 159.24031,87.313378 c -3.54091,-4.38849 -11.82164,-11.929234 -11.54613,-28.518501 0.0887,-5.340728 -1.59586,-18.158982 18.63709,-22.054137 7.55983,-1.455385 17.90266,6.572386 19.35565,20.880012 0.72465,7.135736 -1.19371,16.22417 -12.67018,15.007119 -4.38431,-0.464947 -16.07895,1.012801 -9.8124,-20.244805 0.38561,-1.308063 5.10751,-19.116126 27.72347,-13.544128 11.21338,2.762693 12.05622,13.204011 5.74986,30.995999 -2.62998,7.419888 -8.29622,15.105936 -14.53117,18.73231 -6.49517,3.777723 -14.3264,-2.821906 -14.31859,-2.825925 3.50814,-1.804649 9.93939,-6.954208 10.53875,-7.522022 1.25677,-1.190625 9.26042,-11.641667 10.98021,-17.131771 1.71979,-5.490104 2.38125,-12.633854 -0.8599,-15.08125 -3.24114,-2.447396 -10.58333,-1.190625 -14.88281,4.564063 -4.29948,5.754687 -6.28385,12.567708 -1.98437,13.890625 4.29948,1.322916 6.87916,-3.307292 6.28385,-6.217709 -0.59531,-2.910416 -3.77031,-11.509375 -8.06979,-13.427604 -4.29948,-1.918229 -8.92969,0.132292 -11.8401,5.357813 -2.91042,5.22552 -4.10105,12.170833 0.7276,21.10052 4.82865,8.929688 10.18646,14.485938 16.00729,15.875 5.82083,1.389063 13.03073,-0.529166 17.52865,-3.241145 4.49791,-2.71198 9.19427,-6.879167 11.50937,-14.552084 2.31511,-7.672916 1.78594,-16.536458 4.43177,-24.010937 2.64584,-7.474479 6.68073,-17.660937 14.61823,-17.396354 7.9375,0.264583 20.96824,6.217708 20.63751,17.92552 -0.33074,11.707813 -4.82864,24.738542 -15.87501,23.680209 -11.04635,-1.058334 -15.61042,-10.980209 -22.225,-23.481771 -6.61458,-12.501562 -12.96458,-17.330208 -16.33802,-18.057812 -3.37344,-0.727604 -21.43125,-1.190625 -29.43489,3.902604 -8.00365,5.093229 -16.53646,16.205729 -16.99948,28.310416 -0.46302,12.104688 7.40833,24.143229 9.525,25.135417 2.11666,0.992187 7.32097,2.101286 13.02718,0.464259 5.7062,-1.637025 6.36101,8.185129 6.36101,8.185129 -2.43215,0.795128 -9.21412,2.291837 -13.00267,1.870887 -3.78854,-0.420949 -13.47038,0.561266 -18.89595,-9.72861 -5.42557,-10.289876 -7.26718,-21.561457 -5.94426,-32.806248 1.32292,-11.244792 9.98802,-24.738542 19.18229,-28.707292 9.19427,-3.96875 21.43125,-8.466666 36.5125,-4.960937 15.08125,3.505729 17.13177,10.384896 23.0849,20.703645 5.95312,10.31875 9.85572,21.034375 15.0151,21.100521 5.15937,0.06615 8.33437,-15.941146 3.43958,-20.174479 -4.89479,-4.233333 -8.86354,-7.540625 -12.7,4.431771 -3.83646,11.972396 -4.23333,26.789062 -6.41614,31.022396 -2.18281,4.233333 -7.9375,16.205729 -23.54792,18.388541 -15.61042,2.182813 -17.38419,-0.525843 -20.56195,-2.011772 -2.12014,-0.991386 -4.35095,-1.337355 -8.42013,-5.827483 z"
           id="path1069-3-5"
           inkscape:connector-curvature="0"
           sodipodi:nodetypes="cssssssssssscsssscsssccssssssscscssssssssssssc" />
        <path
           style="fill:#c5c5c5;fill-opacity:1;stroke:none;stroke-width:0.26458332px;stroke-linecap:butt;stroke-linejoin:miter;stroke-opacity:1"
           d="m 159.24031,87.313378 c -3.54091,-4.388489 -11.82164,-11.929235 -11.54613,-28.518501 0.0887,-5.340729 -1.59586,-18.158982 18.63709,-22.054137 7.55983,-1.455385 17.90266,6.572386 19.35565,20.880013 0.72465,7.135734 -1.19371,16.22417 -12.67018,15.007117 -4.38431,-0.464945 -16.07895,1.012803 -9.8124,-20.244805 0.38561,-1.308062 5.10751,-19.116125 27.72347,-13.544127 11.21338,2.762693 12.05622,13.204012 5.74986,30.995999 -2.62998,7.419888 -8.29622,15.105935 -14.53117,18.732309 -6.49517,3.777723 -14.3264,-2.821904 -14.31859,-2.825924 3.50814,-1.804648 9.93939,-6.954209 10.53875,-7.522022 1.25677,-1.190625 9.26042,-11.641667 10.98021,-17.131771 1.71979,-5.490104 2.38125,-12.633854 -0.8599,-15.08125 -3.24114,-2.447396 -10.58333,-1.190625 -14.88281,4.564063 -4.29948,5.754687 -6.28385,12.567708 -1.98437,13.890624 4.29948,1.322917 6.87916,-3.307291 6.28385,-6.217708 -0.59531,-2.910416 -3.77031,-11.509375 -8.06979,-13.427604 -4.29948,-1.918229 -8.92969,0.132292 -11.8401,5.357813 -2.91042,5.22552 -4.10105,12.170833 0.7276,21.10052 4.82865,8.929688 10.18646,14.485938 16.00729,15.875 5.82083,1.389062 13.03073,-0.529167 17.52865,-3.241146 4.49791,-2.711979 9.19427,-6.879166 11.50937,-14.552083 2.31511,-7.672917 1.78594,-16.536458 4.43177,-24.010937 2.64584,-7.474479 6.68073,-17.660937 14.61823,-17.396354 7.9375,0.264583 20.96823,6.217708 20.6375,17.925521 -0.33073,11.707812 -4.82864,24.738541 -15.875,23.680208 -11.04635,-1.058334 -15.61042,-10.980209 -22.225,-23.481771 -6.61458,-12.501562 -12.96458,-17.330208 -16.33802,-18.057812 -3.37344,-0.727604 -21.43125,-1.190625 -29.43489,3.902604 -8.00365,5.093229 -16.53646,16.205729 -16.99948,28.310416 -0.46302,12.104688 7.40833,24.143229 9.525,25.135417 2.11666,0.992187 7.32097,2.101286 13.02718,0.464259 5.7062,-1.637025 6.36101,8.185129 6.36101,8.185129 -2.43215,0.795127 -9.21412,2.291836 -13.00267,1.870887 -3.78854,-0.42095 -13.47038,0.561265 -18.89595,-9.72861 -5.42557,-10.289876 -7.26718,-21.561457 -5.94426,-32.806248 1.32292,-11.244792 9.98802,-24.738542 19.18229,-28.707292 9.19427,-3.96875 21.43125,-8.466666 36.5125,-4.960937 15.08125,3.505729 17.13177,10.384896 23.0849,20.703645 5.95312,10.31875 9.85572,21.034375 15.0151,21.100521 5.15937,0.06615 8.33437,-15.941146 3.43958,-20.174479 -4.89479,-4.233333 -8.86354,-7.540625 -12.7,4.431771 -3.83646,11.972396 -4.23333,26.789062 -6.41614,31.022395 -2.18281,4.233334 -7.9375,16.205729 -23.54792,18.388542 -15.61042,2.182812 -17.38419,-0.525843 -20.56195,-2.011773 -2.12014,-0.991386 -4.35095,-1.337354 -8.42013,-5.827482 z"
           id="path1069-35"
           inkscape:connector-curvature="0"
           sodipodi:nodetypes="cssssssssssscsssscsssccssssssscscssssssssssssc" />
        <path
           style="fill:none;stroke:#000000;stroke-width:0.69999999;stroke-linecap:butt;stroke-linejoin:miter;stroke-miterlimit:4;stroke-dasharray:none;stroke-opacity:1"
           d="m 185.16979,20.443446 c -12.03854,-1.322916 -32.17152,1.245423 -41.2335,13.482402 -9.06198,12.236979 -11.32964,24.184316 -8.42976,36.906345 2.89987,12.722029 5.89329,23.479627 23.19899,24.134436 17.3057,0.65481 30.96318,-11.973673 34.98558,-22.544182 4.02241,-10.570512 11.78659,-26.660136 -1.40316,-31.711529 -13.18975,-5.051395 -21.23457,0.654809 -24.97634,6.080381 -3.74177,5.42557 -6.64165,18.521778 -2.24506,22.26355 4.39658,3.741774 16.93152,4.770763 18.9895,-4.490127 2.05797,-9.260888 -3.55469,-26.473047 -15.62191,-26.473047 -12.06722,0 -18.04935,8.617429 -18.79771,12.546291 -0.74835,3.928861 -2.58049,15.055936 2.93862,24.597456 5.51912,9.541524 11.55605,18.608676 26.4296,19.263488 14.87355,0.654809 30.86963,-9.728613 32.74052,-23.292541 1.87089,-13.563928 4.67722,-36.575834 12.72203,-35.079125 8.04481,1.49671 13.65747,9.354434 8.51253,21.234564 -5.14494,11.88013 -12.72203,3.741775 -21.04747,-14.592916 -8.32545,-18.334689 -16.18317,-19.831399 -19.8314,-20.860386 -3.64823,-1.028988 -4.39658,1.590253 -7.85772,1.122532 -3.46114,-0.467722 -26.66014,0.09354 -35.92103,11.693041 -9.26089,11.599498 -12.62848,24.882793 -9.35443,37.137102 3.27405,12.254307 11.5995,26.566588 32.36634,17.025067 20.76684,-9.541521 26.09887,-31.33735 24.60216,-38.727353 -1.49671,-7.390003 -11.50596,-11.880131 -19.73786,-7.76418 -8.2319,4.115951 -17.49279,24.41507 -4.67721,26.379501 12.81557,1.964431 13.47038,-15.996081 4.77076,-23.666714 -8.69963,-7.670637 -19.64431,-5.799749 -23.85381,6.641647 -4.20949,12.441396 4.02241,29.372919 13.18975,35.079125 9.16735,5.706202 22.26355,9.073795 34.05014,-2.245064 11.78659,-11.318864 10.7576,-23.573173 11.88013,-30.86963 1.12253,-7.29646 5.33203,-27.502035 18.89596,-19.176589 13.56393,8.325444 5.05139,25.537603 1.49671,28.905199 -3.55469,3.367595 -10.19634,1.309621 -13.56393,-4.022408 -3.3676,-5.332026 -9.44798,-19.083043 -13.75102,-24.227981 -4.30304,-5.144938 -8.13836,-8.886712 -13.09621,-10.196332 -4.95784,-1.309621 -4.11595,1.30962 -7.95126,1.216076 -3.83532,-0.09354 -18.52178,-0.187089 -27.59558,6.454559 -9.0738,6.641649 -15.62191,19.831398 -14.59292,31.992161 1.02899,12.160766 7.76418,23.386084 15.15418,23.666717 7.39001,0.280633 21.14102,-1.496708 31.05672,-20.018486 9.9157,-18.521778 2.53092,-25.005675 -2.98872,-25.060481 -9.42172,-0.09354 -18.78606,12.244807 -16.89472,18.865805 2.61145,9.141867 12.49344,1.33037 12.11926,-3.066214 -0.37417,-4.396584 -6.73519,-17.960512 -14.49937,-16.276714 -7.76418,1.683798 -18.1476,15.434815 -4.77076,34.892038 13.37684,19.457219 32.36634,9.915699 39.47571,2.151517 7.10937,-7.764179 7.76418,-23.292538 8.60608,-29.653552 0.8419,-6.361015 6.64165,-25.163426 20.57975,-19.737855 13.93811,5.425571 16.18317,19.737855 8.51253,31.056719 -7.67063,11.318864 -18.9895,8.512535 -27.87621,-9.822156 -8.88671,-18.334689 -15.90253,-23.479627 -18.80241,-24.227982 -2.89987,-0.748354 -2.82389,-6.297714 -5.90207,-6.984175 z"
           id="path1076-6"
           inkscape:connector-curvature="0"
           sodipodi:nodetypes="csssssscsscssssssssssssssssssssccsscsssscscssssssssc" />
      </g>
      <circle
         r="35.640949"
         cy="57.854607"
         cx="304.75607"
         id="path1086"
         style="opacity:1;fill:none;fill-opacity:1;stroke:#555555;stroke-width:0.90000004;stroke-linecap:round;stroke-linejoin:round;stroke-miterlimit:4;stroke-dasharray:1.80000002, 3.60000004;stroke-dashoffset:0;stroke-opacity:1;paint-order:fill markers stroke" />
    </g>
    <path
       sodipodi:nodetypes="sssss"
       inkscape:connector-curvature="0"
       id="path1046"
       d="m 412.91971,-35.35375 c 0,24.402931 -20.89226,43.3916589 -44.05312,43.3916589 -23.16087,0 -36.77708,-17.004353 -36.77709,-41.4072839 0,-24.402931 19.17247,-40.745833 42.33334,-40.745833 23.16087,10e-7 38.49687,14.358527 38.49687,38.761458 z"
       style="opacity:1;vector-effect:none;fill:#c5c5c5;fill-opacity:1;stroke:#dfdfdf;stroke-width:1;stroke-linecap:round;stroke-linejoin:round;stroke-miterlimit:4;stroke-dasharray:4.00000004, 4.00000004;stroke-dashoffset:0;stroke-opacity:1;paint-order:fill markers stroke" />
  </g>
</svg>
